{
	"storage": {
		"net": {
			"bindBacklogSize": "int32",
			"interestOpQueued": "boolean",
			"keepAlive": "boolean",
			"linger": "int32",
			"reuseAddr": "boolean",
			"rcvBuf": "int32",
			"sndBuf": "int32",
			"tcpNoDelay": "boolean",
			"timeoutMilliSec": "int32",
			"ioRatio": "int32",
			"transport": "string",
			"ssl": "boolean",
			"node": {
				"addrs": "list",
				"connAttemptsLimit": "int32",
				"port": "int32",
				"slice": "boolean"
			}
		}
	}
}
